<svg xmlns="http://www.w3.org/2000/svg" viewBox="0 0 48 48">
  <circle cx="24" cy="24" r="24" fill="#f4f3f3" id="bg"/>
  <path d="M21.92 15.88a6.08 6.08 0 0 0-6.06 6.06A6.08 6.08 0 0 0 21.92 28a5.71 5.71 0 0 0 4.25-1.78 6.11 6.11 0 0 0 0-8.56 5.71 5.71 0 0 0-4.25-1.78zM35.8 32.19a.54.54 0 0 1 0 .87l-2.69 2.75a.66.66 0 0 1-.5.19.59.59 0 0 1-.44-.19l-5.25-5.37a9.49 9.49 0 0 1-5 1.44 9.6 9.6 0 0 1-7-2.91 9.52 9.52 0 0 1-2.94-7 9.51 9.51 0 0 1 2.94-7 9.6 9.6 0 0 1 7-2.91 9.5 9.5 0 0 1 7 2.91 9.56 9.56 0 0 1 2.91 7 9.45 9.45 0 0 1-1.32 4.87z" fill="#1e2348" id="Layer_2" data-name="Layer 2"/>
</svg>
