<svg xmlns="http://www.w3.org/2000/svg" viewBox="0 0 48 48">
  <circle cx="24" cy="24" r="24" fill="#2d68ff" id="bg"/>
  <path d="M36 31a7.56 7.56 0 0 1-.53 2.37 4.58 4.58 0 0 1-2.08 1.81 6.6 6.6 0 0 1-3.17.87 6.44 6.44 0 0 1-.89-.06 7.59 7.59 0 0 1-1-.21l-.81-.25-.95-.35-.83-.31a15.33 15.33 0 0 1-3-1.41 25.9 25.9 0 0 1-4.51-3.67 25.9 25.9 0 0 1-3.67-4.51 15.33 15.33 0 0 1-1.41-3l-.31-.83c-.17-.46-.29-.77-.35-.95s-.14-.44-.25-.81a7.59 7.59 0 0 1-.21-1 6.44 6.44 0 0 1-.06-.89 6.6 6.6 0 0 1 .87-3.17 4.58 4.58 0 0 1 1.81-2.08 6 6 0 0 1 1.16-.36 6 6 0 0 1 1.24-.19 1 1 0 0 1 .35.05c.21.07.51.5.91 1.3l.51.92.59 1.08c.19.32.36.63.53.91 0 0 .14.19.3.43a4.72 4.72 0 0 1 .37.6 1.14 1.14 0 0 1 .12.49 1.38 1.38 0 0 1-.49.85 8 8 0 0 1-1.06.94 9.2 9.2 0 0 0-1.05.9 1.28 1.28 0 0 0-.49.79 1.08 1.08 0 0 0 .09.38 2.78 2.78 0 0 0 .14.35c0 .08.12.21.24.41l.2.32a18 18 0 0 0 3 4 18 18 0 0 0 4 3l.32.2.41.24.35.14a1.08 1.08 0 0 0 .38.09 1.28 1.28 0 0 0 .79-.49 9.2 9.2 0 0 0 .9-1.05 8 8 0 0 1 .94-1.06 1.38 1.38 0 0 1 .85-.49 1.14 1.14 0 0 1 .49.12 4.72 4.72 0 0 1 .6.37l.43.3.91.53 1.08.59.92.51c.8.4 1.23.7 1.3.91A1 1 0 0 1 36 31z" fill="#f4f3f3" id="Layer_2" data-name="Layer 2"/>
</svg>
