<svg xmlns="http://www.w3.org/2000/svg" viewBox="0 0 24 24">
  <path d="M21.63 0a2.28 2.28 0 0 1 1.67.7 2.28 2.28 0 0 1 .7 1.67V24l-4.79-4.79H2.37a2.24 2.24 0 0 1-1.67-.73 2.36 2.36 0 0 1-.7-1.69V2.37A2.28 2.28 0 0 1 .7.7 2.28 2.28 0 0 1 2.37 0zm-2.16 6V5a.51.51 0 0 0-.14-.36.5.5 0 0 0-.33-.14H5a.5.5 0 0 0-.37.15.51.51 0 0 0-.1.35v1a.51.51 0 0 0 .14.36.5.5 0 0 0 .33.19h14a.5.5 0 0 0 .37-.15.51.51 0 0 0 .1-.4zm0 4.08v-1a.51.51 0 0 0-.14-.37.49.49 0 0 0-.33-.12H5a.49.49 0 0 0-.37.14.51.51 0 0 0-.14.37v1a.51.51 0 0 0 .14.36.5.5 0 0 0 .37.15h14a.5.5 0 0 0 .37-.15.51.51 0 0 0 .1-.34zm0 4.08v-1a.53.53 0 0 0-.14-.37.49.49 0 0 0-.37-.14H5a.49.49 0 0 0-.37.14.53.53 0 0 0-.14.37v1a.49.49 0 0 0 .14.36.5.5 0 0 0 .37.15h14a.5.5 0 0 0 .37-.15.49.49 0 0 0 .1-.32z" fill="#2d68ff" id="Layer_2" data-name="Layer 2"/>
</svg>
